 _____ _                           _                      
/  __ \ |                         | |                     
| /  \/ |__  _ __ ___  _ __   ___ | | __ _ _ __  ___  ___ 
| |   | '_ \| '__/ _ \| '_ \ / _ \| |/ _` | '_ \/ __|/ _ \
| \__/\ | | | | | (_) | | | | (_) | | (_| | |_) \__ \  __/
 \____/_| |_|_|  \___/|_| |_|\___/|_|\__,_| .__/|___/\___|
                                          | |             
                                          |_|             